<?xml version="1.0" standalone="no"?>
<!DOCTYPE svg PUBLIC "-//W3C//DTD SVG 1.1//EN" "http://www.w3.org/Graphics/SVG/1.1/DTD/svg11.dtd" >
<svg xmlns="http://www.w3.org/2000/svg">
<metadata>Generated by IcoMoon</metadata>
<defs>
<font id="icomoon" horiz-adv-x="1024">
<font-face units-per-em="1024" ascent="960" descent="-64" />
<missing-glyph horiz-adv-x="1024" />
<glyph unicode="&#x20;" horiz-adv-x="512" d="" />
<glyph unicode="&#xe909;" glyph-name="column" d="M463.667 793.702h-258.867c-29.082 0-29.082 0-29.082-29.082v-633.037c0-29.082 0-29.082 29.082-29.082h258.867c29.082 0 29.082 0 29.082 29.082v633.037c-0.819 29.082-0.819 29.082-29.082 29.082zM837.222 793.702h-258.867c-29.082 0-29.082 0-29.082-29.082v-633.037c0-29.082 0-29.082 29.082-29.082h258.867c29.082 0 29.082 0 29.082 29.082v633.037c-0.205 29.082-0.205 29.082-29.082 29.082z" />
<glyph unicode="&#xe910;" glyph-name="column2" d="M372.531 793.907h-190.464c-9.421 0-15.77-6.349-15.77-15.77v-666.419c0-9.421 6.349-15.77 15.77-15.77h190.464c9.421 0 15.77 6.349 15.77 15.77v666.214c0 9.626-6.349 15.974-15.77 15.974zM626.278 793.907h-190.464c-9.421 0-15.77-6.349-15.77-15.77v-666.419c0-9.421 6.349-15.77 15.77-15.77h190.464c9.421 0 15.77 6.349 15.77 15.77v666.214c0.205 9.626-6.144 15.974-15.77 15.974zM880.23 793.907h-190.464c-9.421 0-15.77-6.349-15.77-15.77v-666.419c0-9.421 6.349-15.77 15.77-15.77h190.464c9.421 0 15.77 6.349 15.77 15.77v666.214c0 9.626-6.349 15.974-15.77 15.974z" />
<glyph unicode="&#xe911;" glyph-name="column_full" d="M82.125 795.955h854.016v-696.32h-854.016v696.32z" />
</font></defs></svg>