{
	"IcoMoonType": "selection",
	"icons": [
		{
			"icon": {
				"paths": [
					"M810.4 495.2h142.5v398.2h-142.5v-398.2z",
					"M315.4 260.1h142.5v398.2h-142.5v-398.2z",
					"M564.9 377.6h142.5v398.2h-142.5v-398.2z",
					"M72 142.5h142.5v398.2h-142.5v-398.2z"
				],
				"attrs": [],
				"isMulticolor": false,
				"grid": 0,
				"tags": [
					"icon_signal_downTrend"
				]
			},
			"attrs": [],
			"properties": {
				"order": 8,
				"id": 8,
				"prevSize": 32,
				"code": 59648,
				"name": "signal_downTrend"
			},
			"setIdx": 0,
			"setId": 7,
			"iconIdx": 0
		},
		{
			"icon": {
				"paths": [
					"M68 176h142.5v433.5h-142.5v-433.5z",
					"M566.9 176h142.5v433.5h-142.5v-433.5z",
					"M317.4 322h142.5v433.5h-142.5v-433.5z",
					"M816.4 319h142.5v433.5h-142.5v-433.5z"
				],
				"attrs": [],
				"isMulticolor": false,
				"grid": 0,
				"tags": [
					"icon_signal_sideWay"
				]
			},
			"attrs": [],
			"properties": {
				"order": 9,
				"id": 7,
				"prevSize": 32,
				"code": 59649,
				"name": "signal_sideWay"
			},
			"setIdx": 0,
			"setId": 7,
			"iconIdx": 1
		},
		{
			"icon": {
				"paths": [
					"M72 495.2h142.5v398.2h-142.5v-398.2z",
					"M566.9 260.1h142.5v398.2h-142.5v-398.2z",
					"M317.4 377.6h142.5v398.2h-142.5v-398.2z",
					"M810.4 142.5h142.5v398.2h-142.5v-398.2z"
				],
				"attrs": [],
				"isMulticolor": false,
				"grid": 0,
				"tags": [
					"icon_signal_upTrend"
				]
			},
			"attrs": [],
			"properties": {
				"order": 10,
				"id": 6,
				"prevSize": 32,
				"code": 59650,
				"name": "signal_upTrend"
			},
			"setIdx": 0,
			"setId": 7,
			"iconIdx": 2
		},
		{
			"icon": {
				"paths": [
					"M56 792.6h143v-361.6h-143v361.6zM64.7 440.3h125.3v342.5h-125.3v-342.5z",
					"M251.3 792.6h143v-433.7h-143v433.7zM260.2 368.7h125.3v414.5h-125.3v-414.5z",
					"M446.7 792.6h143v-507h-143v507zM455.5 297h125.3v486.5h-125.3v-486.5z",
					"M642 792.6h143v-575.6h-143v575.6zM776.2 226l1 557.5h-125.3l-1-557.5h125.3z",
					"M837.4 142.6v650h143v-650h-143zM846.9 783.5l-1-631.5h125.3l1 631.5h-125.3z"
				],
				"attrs": [],
				"isMulticolor": false,
				"grid": 0,
				"tags": [
					"icon_signal_00"
				]
			},
			"attrs": [],
			"properties": {
				"order": 11,
				"id": 5,
				"prevSize": 32,
				"code": 59651,
				"name": "ft_signal_00"
			},
			"setIdx": 0,
			"setId": 7,
			"iconIdx": 3
		},
		{
			"icon": {
				"paths": [
					"M56 431h143v361.6h-143v-361.6z",
					"M56 431v361.6h143v-361.6h-143zM190 782.8h-125.3v-342.5h125.3v342.5z",
					"M251.3 792.6h143v-433.7h-143v433.7zM260.2 368.7h125.3v414.5h-125.3v-414.5z",
					"M446.7 792.6h143v-507h-143v507zM455.5 297h125.3v486.5h-125.3v-486.5z",
					"M642 792.6h143v-575.6h-143v575.6zM776.2 226l1 557.5h-125.3l-1-557.5h125.3z",
					"M837.4 142.6v650h143v-650h-143zM846.9 783.5l-1-631.5h125.3l1 631.5h-125.3z"
				],
				"attrs": [],
				"isMulticolor": false,
				"grid": 0,
				"tags": [
					"icon_signal_01"
				]
			},
			"attrs": [],
			"properties": {
				"order": 12,
				"id": 4,
				"prevSize": 32,
				"code": 59652,
				"name": "ft_signal_01"
			},
			"setIdx": 0,
			"setId": 7,
			"iconIdx": 4
		},
		{
			"icon": {
				"paths": [
					"M251.3 358.9h143v433.7h-143v-433.7z",
					"M56 431v361.6h143v-361.6h-143z",
					"M446.7 792.6h143v-507h-143v507zM455.5 297h125.3v486.5h-125.3v-486.5z",
					"M642 792.6h143v-575.6h-143v575.6zM776.2 226l1 557.5h-125.3l-1-557.5h125.3z",
					"M837.4 142.6v650h143v-650h-143zM846.9 783.5l-1-631.5h125.3l1 631.5h-125.3z"
				],
				"attrs": [],
				"isMulticolor": false,
				"grid": 0,
				"tags": [
					"icon_signal_02"
				]
			},
			"attrs": [],
			"properties": {
				"order": 13,
				"id": 3,
				"prevSize": 32,
				"code": 59653,
				"name": "ft_signal_02"
			},
			"setIdx": 0,
			"setId": 7,
			"iconIdx": 5
		},
		{
			"icon": {
				"paths": [
					"M251.3 358.9h143v433.7h-143v-433.7z",
					"M446.7 285.6h143v507h-143v-507z",
					"M56 431v361.6h143v-361.6h-143z",
					"M642 792.6h143v-575.6h-143v575.6zM776.2 226l1 557.5h-125.3l-1-557.5h125.3z",
					"M837.4 142.6v650h143v-650h-143zM846.9 783.5l-1-631.5h125.3l1 631.5h-125.3z"
				],
				"attrs": [],
				"isMulticolor": false,
				"grid": 0,
				"tags": [
					"icon_signal_03"
				]
			},
			"attrs": [],
			"properties": {
				"order": 14,
				"id": 2,
				"prevSize": 32,
				"code": 59654,
				"name": "ft_signal_03"
			},
			"setIdx": 0,
			"setId": 7,
			"iconIdx": 6
		},
		{
			"icon": {
				"paths": [
					"M251.3 358.9h143v433.7h-143v-433.7z",
					"M446.7 285.6h143v507h-143v-507z",
					"M642 217h143v575.6h-143v-575.6z",
					"M56 431v361.6h143v-361.6h-143z",
					"M837.4 142.6v650h143v-650h-143zM846.9 783.5l-1-631.5h125.3l1 631.5h-125.3z"
				],
				"attrs": [],
				"isMulticolor": false,
				"grid": 0,
				"tags": [
					"icon_signal_04"
				]
			},
			"attrs": [],
			"properties": {
				"order": 15,
				"id": 1,
				"prevSize": 32,
				"code": 59655,
				"name": "ft_signal_04"
			},
			"setIdx": 0,
			"setId": 7,
			"iconIdx": 7
		},
		{
			"icon": {
				"paths": [
					"M56 431h143v361.6h-143v-361.6z",
					"M251.3 358.9h143v433.7h-143v-433.7z",
					"M446.7 285.6h143v507h-143v-507z",
					"M642 217h143v575.6h-143v-575.6z",
					"M837.4 142.6h143v650h-143v-650z"
				],
				"attrs": [],
				"isMulticolor": false,
				"grid": 0,
				"tags": [
					"icon_signal_05"
				]
			},
			"attrs": [],
			"properties": {
				"order": 16,
				"id": 0,
				"prevSize": 32,
				"code": 59656,
				"name": "ft_signal_05"
			},
			"setIdx": 0,
			"setId": 7,
			"iconIdx": 8
		}
	],
	"height": 1024,
	"metadata": {
		"name": "icomoon"
	},
	"preferences": {
		"showGlyphs": true,
		"showQuickUse": true,
		"showQuickUse2": true,
		"showSVGs": true,
		"fontPref": {
			"prefix": "icon-",
			"metadata": {
				"fontFamily": "icomoon"
			},
			"metrics": {
				"emSize": 1024,
				"baseline": 6.25,
				"whitespace": 50
			},
			"embed": false,
			"autoHost": false
		},
		"imagePref": {
			"prefix": "icon-",
			"png": true,
			"useClassSelector": true,
			"color": 4473924,
			"bgColor": 16777215,
			"classSelector": ".icon"
		},
		"historySize": 100,
		"showCodes": false,
		"quickUsageToken": {
			"UntitledProject": "NTA0ZjA4OTNlMmNhNGE4N2Y4NmJmNmJkZjI0NDU3ZWIjMSMxNDU2MzAwNDc4IyMj"
		}
	}
}